{
    "name": "neuro-chip",
    "version": "0.0.1",
    "description": "NeuroMATE :: Chip",
    "author": "TAYAA Med Amine <amine@tayaa.me>",
    "keywords": [
        "slack",
        "bot",
        "a.i",
        "uchikoma"
    ],
    "license": "LGPL-3.0",
    "private": true,
    "engines": {
        "node": "0.10.x"
    },
    "scripts": {
        "graffeine": "node files/scripts/graffeine/server.js"
    },
    "dependencies": {
        "d3": "3.1.10",
        "neo4j": "1.1.0",
        "node-static": "0.6.9",
        "socket.io": "0.9.17",
        "autobahn": "^0.9.5",
        "coffee-script": "^1.9",
        "hubot-hipchat": "^2.12.0-6",
        "hubot-irc": "0.2.8",
        "hubot-scripts": "^2.17.2",
        "hubot-slack": "^3.4.2",
        "hubot-twilio": "^2.1.0",
        "hubot": "^2.18.0",
        "hubot-help": "^0.1.3",
        "hubot-diagnostics": "0.0.1",
        "hubot-cron": ">= 0.1.0",
        "hubot-heroku-keepalive": "^1.0.2",
        "hubot-pubsub": "^1.0.4",
        "hubot-partyline": "*",
        "hubot-mongodb-brain": "^0.1.1"
    },
    "bundledDependencies": [
        "d3",
        "js-yaml",
        "neo4j",
        "node-static",
        "socket.io",
        "autobahn"
    ],
    "devDependencies": {}
}
